%YAML 1.1
%TAG !u! tag:unity3d.com,2011:
--- !u!78 &1
TagManager:
  serializedVersion: 2
  tags:
  - Ground
  - Hand
  - Block
  - CameraRig
  - ObjectStateTracker
  - KinectStateTracker
  - MImEGlobalObject
  - KinectManagerObject
  - PlayerAvatar
  - NVR Player
  - Performer
  - IKTargets
  - AudienceMember
  - Agent
  - SpeechText
  - SpeechTextAudienceView
  - SpeechTextVRView
  - AgentRightHand
  - AgentLeftHand
  layers:
  - Default
  - TransparentFX
  - Ignore Raycast
  - 
  - Water
  - UI
  - 
  - 
  - Player
  - ObjectStateTracker
  - Spacial UI
  - StereoRender_Ignore
  - AudienceCameraView
  - 
  - 
  - 
  - 
  - 
  - 
  - 
  - 
  - 
  - 
  - 
  - 
  - 
  - 
  - 
  - 
  - 
  - 
  - 
  m_SortingLayers:
  - name: Default
    uniqueID: 0
    locked: 0
