#Big Curved Axe.obj
#Friday, January 05, 2018
#11:49:07 AM
#-------

g Big Curved Axe
#Big Curved Axe
#-------
#Blade
#-------
v -0.119 -0.006160021 0.0492
v -0.119 -0.006160021 -0.04960568
v -0.119 -0.18904 0.0492
v -0.119 -0.18904 -0.04960568
v -0.17996 -0.25 0.0492
v -0.17996 -0.25 -0.04960568
v -0.43904 -0.25 0.0492
v -0.43904 -0.25 -0.04960568
v -0.5 -0.006160021 -0.04960568
v -0.5 -0.006160021 0.0492
v -0.5 -0.18904 -0.04960568
v -0.5 -0.18904 0.0492
v -0.12916 0.003999996 -0.04960568
v -0.12916 0.003999996 0.0492
v -0.48984 0.003999996 -0.04960568
v -0.48984 0.003999996 0.0492
v -0.17996 -0.25 -0.04960568
v -0.119 -0.18904 -0.04960568
v -0.43904 -0.25 -0.04960568
v -0.119 -0.006160021 -0.04960568
v -0.5 -0.006160021 -0.04960568
v -0.48984 0.003999996 -0.04960568
v -0.12916 0.003999996 -0.04960568
v -0.1191251 -0.004571009 -0.04960568
v -0.1194973 -0.00302 -0.04960568
v -0.1201074 -0.001547003 -0.04960568
v -0.1209404 -0.0001880169 -0.04960568
v -0.1219758 0.001024008 -0.04960568
v -0.1275706 0.003874993 -0.04960568
v -0.1260204 0.003502989 -0.04960568
v -0.1245475 0.002892995 -0.04960568
v -0.1231881 0.002059984 -0.04960568
v -0.5 -0.18904 -0.04960568
v -0.499249 -0.1985762 -0.04960568
v -0.499875 -0.004571009 -0.04960568
v -0.499503 -0.00302 -0.04960568
v -0.4914289 0.003874993 -0.04960568
v -0.49298 0.003502989 -0.04960568
v -0.494453 0.002892995 -0.04960568
v -0.495812 0.002059984 -0.04960568
v -0.498893 -0.001547003 -0.04960568
v -0.497024 0.001024008 -0.04960568
v -0.49806 -0.0001880169 -0.04960568
v -0.497016 -0.2078777 -0.04960568
v -0.493356 -0.2167152 -0.04960568
v -0.488358 -0.2248714 -0.04960568
v -0.482145 -0.2321452 -0.04960568
v -0.474871 -0.2383577 -0.04960568
v -0.466715 -0.2433558 -0.04960568
v -0.448576 -0.2492495 -0.04960568
v -0.457878 -0.2470164 -0.04960568
v -0.1522847 -0.2433558 -0.04960568
v -0.1441286 -0.2383577 -0.04960568
v -0.1197505 -0.1985762 -0.04960568
v -0.1611223 -0.2470164 -0.04960568
v -0.1704238 -0.2492495 -0.04960568
v -0.1219836 -0.2078777 -0.04960568
v -0.1256442 -0.2167152 -0.04960568
v -0.1368548 -0.2321452 -0.04960568
v -0.1306423 -0.2248714 -0.04960568
v -0.499875 -0.004571009 0.0492
v -0.48984 0.003999996 0.0492
v -0.5 -0.006160021 0.0492
v -0.12916 0.003999996 0.0492
v -0.119 -0.006160021 0.0492
v -0.1191251 -0.004571009 0.0492
v -0.1194973 -0.00302 0.0492
v -0.1201074 -0.001547003 0.0492
v -0.1209404 -0.0001880169 0.0492
v -0.1219758 0.001024008 0.0492
v -0.1231881 0.002059984 0.0492
v -0.1245475 0.002892995 0.0492
v -0.1275706 0.003874993 0.0492
v -0.1260204 0.003502989 0.0492
v -0.499503 -0.00302 0.0492
v -0.4914289 0.003874993 0.0492
v -0.49298 0.003502989 0.0492
v -0.494453 0.002892995 0.0492
v -0.495812 0.002059984 0.0492
v -0.498893 -0.001547003 0.0492
v -0.497024 0.001024008 0.0492
v -0.49806 -0.0001880169 0.0492
v -0.488358 -0.2248714 0.0492
v -0.43904 -0.25 0.0492
v -0.482145 -0.2321452 0.0492
v -0.474871 -0.2383577 0.0492
v -0.466715 -0.2433558 0.0492
v -0.448576 -0.2492495 0.0492
v -0.457878 -0.2470164 0.0492
v -0.493356 -0.2167152 0.0492
v -0.497016 -0.2078777 0.0492
v -0.499249 -0.1985762 0.0492
v -0.5 -0.18904 0.0492
v -0.17996 -0.25 0.0492
v -0.119 -0.18904 0.0492
v -0.1704238 -0.2492495 0.0492
v -0.1611223 -0.2470164 0.0492
v -0.1522847 -0.2433558 0.0492
v -0.1441286 -0.2383577 0.0492
v -0.1197505 -0.1985762 0.0492
v -0.1219836 -0.2078777 0.0492
v -0.1368548 -0.2321452 0.0492
v -0.1256442 -0.2167152 0.0492
v -0.1306423 -0.2248714 0.0492
v -0.119 -0.18904 -0.04960568
v -0.1197505 -0.1985762 0.0492
v -0.119 -0.18904 0.0492
v -0.1197505 -0.1985762 -0.04960568
v -0.1197505 -0.1985762 -0.04960568
v -0.1219836 -0.2078777 0.0492
v -0.1197505 -0.1985762 0.0492
v -0.1219836 -0.2078777 -0.04960568
v -0.1219836 -0.2078777 -0.04960568
v -0.1256442 -0.2167152 0.0492
v -0.1219836 -0.2078777 0.0492
v -0.1256442 -0.2167152 -0.04960568
v -0.1256442 -0.2167152 -0.04960568
v -0.1306423 -0.2248714 0.0492
v -0.1256442 -0.2167152 0.0492
v -0.1306423 -0.2248714 -0.04960568
v -0.1306423 -0.2248714 -0.04960568
v -0.1368548 -0.2321452 0.0492
v -0.1306423 -0.2248714 0.0492
v -0.1368548 -0.2321452 -0.04960568
v -0.1368548 -0.2321452 -0.04960568
v -0.1441286 -0.2383577 0.0492
v -0.1368548 -0.2321452 0.0492
v -0.1441286 -0.2383577 -0.04960568
v -0.1441286 -0.2383577 -0.04960568
v -0.1522847 -0.2433558 0.0492
v -0.1441286 -0.2383577 0.0492
v -0.1522847 -0.2433558 -0.04960568
v -0.1522847 -0.2433558 -0.04960568
v -0.1611223 -0.2470164 0.0492
v -0.1522847 -0.2433558 0.0492
v -0.1611223 -0.2470164 -0.04960568
v -0.1611223 -0.2470164 -0.04960568
v -0.1704238 -0.2492495 0.0492
v -0.1611223 -0.2470164 0.0492
v -0.1704238 -0.2492495 -0.04960568
v -0.1704238 -0.2492495 -0.04960568
v -0.17996 -0.25 0.0492
v -0.1704238 -0.2492495 0.0492
v -0.17996 -0.25 -0.04960568
v -0.43904 -0.25 -0.04960568
v -0.448576 -0.2492495 0.0492
v -0.43904 -0.25 0.0492
v -0.448576 -0.2492495 -0.04960568
v -0.448576 -0.2492495 -0.04960568
v -0.457878 -0.2470164 0.0492
v -0.448576 -0.2492495 0.0492
v -0.457878 -0.2470164 -0.04960568
v -0.457878 -0.2470164 -0.04960568
v -0.466715 -0.2433558 0.0492
v -0.457878 -0.2470164 0.0492
v -0.466715 -0.2433558 -0.04960568
v -0.466715 -0.2433558 -0.04960568
v -0.474871 -0.2383577 0.0492
v -0.466715 -0.2433558 0.0492
v -0.474871 -0.2383577 -0.04960568
v -0.474871 -0.2383577 -0.04960568
v -0.482145 -0.2321452 0.0492
v -0.474871 -0.2383577 0.0492
v -0.482145 -0.2321452 -0.04960568
v -0.482145 -0.2321452 -0.04960568
v -0.488358 -0.2248714 0.0492
v -0.482145 -0.2321452 0.0492
v -0.488358 -0.2248714 -0.04960568
v -0.488358 -0.2248714 -0.04960568
v -0.493356 -0.2167152 0.0492
v -0.488358 -0.2248714 0.0492
v -0.493356 -0.2167152 -0.04960568
v -0.493356 -0.2167152 -0.04960568
v -0.497016 -0.2078777 0.0492
v -0.493356 -0.2167152 0.0492
v -0.497016 -0.2078777 -0.04960568
v -0.497016 -0.2078777 -0.04960568
v -0.499249 -0.1985762 0.0492
v -0.497016 -0.2078777 0.0492
v -0.499249 -0.1985762 -0.04960568
v -0.499249 -0.1985762 -0.04960568
v -0.5 -0.18904 0.0492
v -0.499249 -0.1985762 0.0492
v -0.5 -0.18904 -0.04960568
v -0.12916 0.003999996 -0.04960568
v -0.1275706 0.003874993 0.0492
v -0.12916 0.003999996 0.0492
v -0.1275706 0.003874993 -0.04960568
v -0.1275706 0.003874993 -0.04960568
v -0.1260204 0.003502989 0.0492
v -0.1275706 0.003874993 0.0492
v -0.1260204 0.003502989 -0.04960568
v -0.1260204 0.003502989 -0.04960568
v -0.1245475 0.002892995 0.0492
v -0.1260204 0.003502989 0.0492
v -0.1245475 0.002892995 -0.04960568
v -0.1245475 0.002892995 -0.04960568
v -0.1231881 0.002059984 0.0492
v -0.1245475 0.002892995 0.0492
v -0.1231881 0.002059984 -0.04960568
v -0.1231881 0.002059984 -0.04960568
v -0.1219758 0.001024008 0.0492
v -0.1231881 0.002059984 0.0492
v -0.1219758 0.001024008 -0.04960568
v -0.1219758 0.001024008 -0.04960568
v -0.1209404 -0.0001880169 0.0492
v -0.1219758 0.001024008 0.0492
v -0.1209404 -0.0001880169 -0.04960568
v -0.1209404 -0.0001880169 -0.04960568
v -0.1201074 -0.001547003 0.0492
v -0.1209404 -0.0001880169 0.0492
v -0.1201074 -0.001547003 -0.04960568
v -0.1201074 -0.001547003 -0.04960568
v -0.1194973 -0.00302 0.0492
v -0.1201074 -0.001547003 0.0492
v -0.1194973 -0.00302 -0.04960568
v -0.1194973 -0.00302 -0.04960568
v -0.1191251 -0.004571009 0.0492
v -0.1194973 -0.00302 0.0492
v -0.1191251 -0.004571009 -0.04960568
v -0.1191251 -0.004571009 -0.04960568
v -0.119 -0.006160021 0.0492
v -0.1191251 -0.004571009 0.0492
v -0.119 -0.006160021 -0.04960568
v -0.5 -0.006160021 -0.04960568
v -0.499875 -0.004571009 0.0492
v -0.5 -0.006160021 0.0492
v -0.499875 -0.004571009 -0.04960568
v -0.499875 -0.004571009 -0.04960568
v -0.499503 -0.00302 0.0492
v -0.499875 -0.004571009 0.0492
v -0.499503 -0.00302 -0.04960568
v -0.499503 -0.00302 -0.04960568
v -0.498893 -0.001547003 0.0492
v -0.499503 -0.00302 0.0492
v -0.498893 -0.001547003 -0.04960568
v -0.498893 -0.001547003 -0.04960568
v -0.49806 -0.0001880169 0.0492
v -0.498893 -0.001547003 0.0492
v -0.49806 -0.0001880169 -0.04960568
v -0.49806 -0.0001880169 -0.04960568
v -0.497024 0.001024008 0.0492
v -0.49806 -0.0001880169 0.0492
v -0.497024 0.001024008 -0.04960568
v -0.497024 0.001024008 -0.04960568
v -0.495812 0.002059984 0.0492
v -0.497024 0.001024008 0.0492
v -0.495812 0.002059984 -0.04960568
v -0.495812 0.002059984 -0.04960568
v -0.494453 0.002892995 0.0492
v -0.495812 0.002059984 0.0492
v -0.494453 0.002892995 -0.04960568
v -0.494453 0.002892995 -0.04960568
v -0.49298 0.003502989 0.0492
v -0.494453 0.002892995 0.0492
v -0.49298 0.003502989 -0.04960568
v -0.49298 0.003502989 -0.04960568
v -0.4914289 0.003874993 0.0492
v -0.49298 0.003502989 0.0492
v -0.4914289 0.003874993 -0.04960568
v -0.4914289 0.003874993 -0.04960568
v -0.48984 0.003999996 0.0492
v -0.4914289 0.003874993 0.0492
v -0.48984 0.003999996 -0.04960568

vn -1 0 0
vn -1 0 0
vn -1 0 0
vn -1 0 0
vn 0 1 0
vn 0 1 0
vn 0 1 0
vn 0 1 0
vn 1 0 0
vn 1 0 0
vn 1 0 0
vn 1 0 0
vn 0 -1 0
vn 0 -1 0
vn 0 -1 0
vn 0 -1 0
vn 0 0 1
vn 0 0 1
vn 0 0 1
vn 0 0 1
vn 0 0 1
vn 0 0 1
vn 0 0 1
vn 0 0 1
vn 0 0 1
vn 0 0 1
vn 0 0 1
vn 0 0 1
vn 0 0 1
vn 0 0 1
vn 0 0 1
vn 0 0 1
vn 0 0 1
vn 0 0 1
vn 0 0 1
vn 0 0 1
vn 0 0 1
vn 0 0 1
vn 0 0 1
vn 0 0 1
vn 0 0 1
vn 0 0 1
vn 0 0 1
vn 0 0 1
vn 0 0 1
vn 0 0 1
vn 0 0 1
vn 0 0 1
vn 0 0 1
vn 0 0 1
vn 0 0 1
vn 0 0 1
vn 0 0 1
vn 0 0 1
vn 0 0 1
vn 0 0 1
vn 0 0 1
vn 0 0 1
vn 0 0 1
vn 0 0 1
vn 0 0 -1
vn 0 0 -1
vn 0 0 -1
vn 0 0 -1
vn 0 0 -1
vn 0 0 -1
vn 0 0 -1
vn 0 0 -1
vn 0 0 -1
vn 0 0 -1
vn 0 0 -1
vn 0 0 -1
vn 0 0 -1
vn 0 0 -1
vn 0 0 -1
vn 0 0 -1
vn 0 0 -1
vn 0 0 -1
vn 0 0 -1
vn 0 0 -1
vn 0 0 -1
vn 0 0 -1
vn 0 0 -1
vn 0 0 -1
vn 0 0 -1
vn 0 0 -1
vn 0 0 -1
vn 0 0 -1
vn 0 0 -1
vn 0 0 -1
vn 0 0 -1
vn 0 0 -1
vn 0 0 -1
vn 0 0 -1
vn 0 0 -1
vn 0 0 -1
vn 0 0 -1
vn 0 0 -1
vn 0 0 -1
vn 0 0 -1
vn 0 0 -1
vn 0 0 -1
vn 0 0 -1
vn 0 0 -1
vn -0.9969174 0.07845903 0
vn -0.9969174 0.07845903 0
vn -0.9969174 0.07845903 0
vn -0.9969174 0.07845903 0
vn -0.97237 0.233445 0
vn -0.97237 0.233445 0
vn -0.97237 0.233445 0
vn -0.97237 0.233445 0
vn -0.9238794 0.3826838 0
vn -0.9238794 0.3826838 0
vn -0.9238794 0.3826838 0
vn -0.9238794 0.3826838 0
vn -0.8526404 0.5224983 0
vn -0.8526404 0.5224983 0
vn -0.8526404 0.5224983 0
vn -0.8526404 0.5224983 0
vn -0.760406 0.649448 0
vn -0.760406 0.649448 0
vn -0.760406 0.649448 0
vn -0.760406 0.649448 0
vn -0.649448 0.760406 0
vn -0.649448 0.760406 0
vn -0.649448 0.760406 0
vn -0.649448 0.760406 0
vn -0.522499 0.8526399 0
vn -0.522499 0.8526399 0
vn -0.522499 0.8526399 0
vn -0.522499 0.8526399 0
vn -0.3826841 0.9238793 0
vn -0.3826841 0.9238793 0
vn -0.3826841 0.9238793 0
vn -0.3826841 0.9238793 0
vn -0.2334441 0.9723703 0
vn -0.2334441 0.9723703 0
vn -0.2334441 0.9723703 0
vn -0.2334441 0.9723703 0
vn -0.07846151 0.9969171 0
vn -0.07846151 0.9969171 0
vn -0.07846151 0.9969171 0
vn -0.07846151 0.9969171 0
vn 0.07846115 0.9969172 0
vn 0.07846115 0.9969172 0
vn 0.07846115 0.9969172 0
vn 0.07846115 0.9969172 0
vn 0.2334441 0.9723703 0
vn 0.2334441 0.9723703 0
vn 0.2334441 0.9723703 0
vn 0.2334441 0.9723703 0
vn 0.3826838 0.9238794 0
vn 0.3826838 0.9238794 0
vn 0.3826838 0.9238794 0
vn 0.3826838 0.9238794 0
vn 0.5225009 0.8526388 0
vn 0.5225009 0.8526388 0
vn 0.5225009 0.8526388 0
vn 0.5225009 0.8526388 0
vn 0.649447 0.7604069 0
vn 0.649447 0.7604069 0
vn 0.649447 0.7604069 0
vn 0.649447 0.7604069 0
vn 0.7604069 0.649447 0
vn 0.7604069 0.649447 0
vn 0.7604069 0.649447 0
vn 0.7604069 0.649447 0
vn 0.8526392 0.5225001 0
vn 0.8526392 0.5225001 0
vn 0.8526392 0.5225001 0
vn 0.8526392 0.5225001 0
vn 0.9238797 0.3826829 0
vn 0.9238797 0.3826829 0
vn 0.9238797 0.3826829 0
vn 0.9238797 0.3826829 0
vn 0.9723703 0.2334441 0
vn 0.9723703 0.2334441 0
vn 0.9723703 0.2334441 0
vn 0.9723703 0.2334441 0
vn 0.9969174 0.07845903 0
vn 0.9969174 0.07845903 0
vn 0.9969174 0.07845903 0
vn 0.9969174 0.07845903 0
vn -0.07846231 -0.9969171 0
vn -0.07846231 -0.9969171 0
vn -0.07846231 -0.9969171 0
vn -0.07846231 -0.9969171 0
vn -0.2334351 -0.9723724 0
vn -0.2334351 -0.9723724 0
vn -0.2334351 -0.9723724 0
vn -0.2334351 -0.9723724 0
vn -0.3826911 -0.9238763 0
vn -0.3826911 -0.9238763 0
vn -0.3826911 -0.9238763 0
vn -0.3826911 -0.9238763 0
vn -0.5225028 -0.8526376 0
vn -0.5225028 -0.8526376 0
vn -0.5225028 -0.8526376 0
vn -0.5225028 -0.8526376 0
vn -0.6494454 -0.7604083 0
vn -0.6494454 -0.7604083 0
vn -0.6494454 -0.7604083 0
vn -0.6494454 -0.7604083 0
vn -0.7604069 -0.649447 0
vn -0.7604069 -0.649447 0
vn -0.7604069 -0.649447 0
vn -0.7604069 -0.649447 0
vn -0.8526411 -0.5224971 0
vn -0.8526411 -0.5224971 0
vn -0.8526411 -0.5224971 0
vn -0.8526411 -0.5224971 0
vn -0.9238781 -0.382687 0
vn -0.9238781 -0.382687 0
vn -0.9238781 -0.382687 0
vn -0.9238781 -0.382687 0
vn -0.9723703 -0.2334441 0
vn -0.9723703 -0.2334441 0
vn -0.9723703 -0.2334441 0
vn -0.9723703 -0.2334441 0
vn -0.9969174 -0.07845933 0
vn -0.9969174 -0.07845933 0
vn -0.9969174 -0.07845933 0
vn -0.9969174 -0.07845933 0
vn 0.9969171 -0.07846241 0
vn 0.9969171 -0.07846241 0
vn 0.9969171 -0.07846241 0
vn 0.9969171 -0.07846241 0
vn 0.9723684 -0.2334521 0
vn 0.9723684 -0.2334521 0
vn 0.9723684 -0.2334521 0
vn 0.9723684 -0.2334521 0
vn 0.9238781 -0.382687 0
vn 0.9238781 -0.382687 0
vn 0.9238781 -0.382687 0
vn 0.9238781 -0.382687 0
vn 0.8526426 -0.5224947 0
vn 0.8526426 -0.5224947 0
vn 0.8526426 -0.5224947 0
vn 0.8526426 -0.5224947 0
vn 0.7604093 -0.6494442 0
vn 0.7604093 -0.6494442 0
vn 0.7604093 -0.6494442 0
vn 0.7604093 -0.6494442 0
vn 0.6494442 -0.7604093 0
vn 0.6494442 -0.7604093 0
vn 0.6494442 -0.7604093 0
vn 0.6494442 -0.7604093 0
vn 0.5225058 -0.8526356 0
vn 0.5225058 -0.8526356 0
vn 0.5225058 -0.8526356 0
vn 0.5225058 -0.8526356 0
vn 0.382685 -0.9238789 0
vn 0.382685 -0.9238789 0
vn 0.382685 -0.9238789 0
vn 0.382685 -0.9238789 0
vn 0.23344 -0.9723713 0
vn 0.23344 -0.9723713 0
vn 0.23344 -0.9723713 0
vn 0.23344 -0.9723713 0
vn 0.0784632 -0.996917 0
vn 0.0784632 -0.996917 0
vn 0.0784632 -0.996917 0
vn 0.0784632 -0.996917 0

vt 0 0
vt 0 0
vt 0 0
vt 0 0
vt 0 0
vt 0 0
vt 0 0
vt 0 0
vt 0 0
vt 0 0
vt 0 0
vt 0 0
vt 0 0
vt 0 0
vt 0 0
vt 0 0
vt 0 0
vt 0 0
vt 0 0
vt 0 0
vt 0 0
vt 0 0
vt 0 0
vt 0 0
vt 0 0
vt 0 0
vt 0 0
vt 0 0
vt 0 0
vt 0 0
vt 0 0
vt 0 0
vt 0 0
vt 0 0
vt 0 0
vt 0 0
vt 0 0
vt 0 0
vt 0 0
vt 0 0
vt 0 0
vt 0 0
vt 0 0
vt 0 0
vt 0 0
vt 0 0
vt 0 0
vt 0 0
vt 0 0
vt 0 0
vt 0 0
vt 0 0
vt 0 0
vt 0 0
vt 0 0
vt 0 0
vt 0 0
vt 0 0
vt 0 0
vt 0 0
vt 0 0
vt 0 0
vt 0 0
vt 0 0
vt 0 0
vt 0 0
vt 0 0
vt 0 0
vt 0 0
vt 0 0
vt 0 0
vt 0 0
vt 0 0
vt 0 0
vt 0 0
vt 0 0
vt 0 0
vt 0 0
vt 0 0
vt 0 0
vt 0 0
vt 0 0
vt 0 0
vt 0 0
vt 0 0
vt 0 0
vt 0 0
vt 0 0
vt 0 0
vt 0 0
vt 0 0
vt 0 0
vt 0 0
vt 0 0
vt 0 0
vt 0 0
vt 0 0
vt 0 0
vt 0 0
vt 0 0
vt 0 0
vt 0 0
vt 0 0
vt 0 0
vt 0 0
vt 0 0
vt 0 0
vt 0 0
vt 0 0
vt 0 0
vt 0 0
vt 0 0
vt 0 0
vt 0 0
vt 0 0
vt 0 0
vt 0 0
vt 0 0
vt 0 0
vt 0 0
vt 0 0
vt 0 0
vt 0 0
vt 0 0
vt 0 0
vt 0 0
vt 0 0
vt 0 0
vt 0 0
vt 0 0
vt 0 0
vt 0 0
vt 0 0
vt 0 0
vt 0 0
vt 0 0
vt 0 0
vt 0 0
vt 0 0
vt 0 0
vt 0 0
vt 0 0
vt 0 0
vt 0 0
vt 0 0
vt 0 0
vt 0 0
vt 0 0
vt 0 0
vt 0 0
vt 0 0
vt 0 0
vt 0 0
vt 0 0
vt 0 0
vt 0 0
vt 0 0
vt 0 0
vt 0 0
vt 0 0
vt 0 0
vt 0 0
vt 0 0
vt 0 0
vt 0 0
vt 0 0
vt 0 0
vt 0 0
vt 0 0
vt 0 0
vt 0 0
vt 0 0
vt 0 0
vt 0 0
vt 0 0
vt 0 0
vt 0 0
vt 0 0
vt 0 0
vt 0 0
vt 0 0
vt 0 0
vt 0 0
vt 0 0
vt 0 0
vt 0 0
vt 0 0
vt 0 0
vt 0 0
vt 0 0
vt 0 0
vt 0 0
vt 0 0
vt 0 0
vt 0 0
vt 0 0
vt 0 0
vt 0 0
vt 0 0
vt 0 0
vt 0 0
vt 0 0
vt 0 0
vt 0 0
vt 0 0
vt 0 0
vt 0 0
vt 0 0
vt 0 0
vt 0 0
vt 0 0
vt 0 0
vt 0 0
vt 0 0
vt 0 0
vt 0 0
vt 0 0
vt 0 0
vt 0 0
vt 0 0
vt 0 0
vt 0 0
vt 0 0
vt 0 0
vt 0 0
vt 0 0
vt 0 0
vt 0 0
vt 0 0
vt 0 0
vt 0 0
vt 0 0
vt 0 0
vt 0 0
vt 0 0
vt 0 0
vt 0 0
vt 0 0
vt 0 0
vt 0 0
vt 0 0
vt 0 0
vt 0 0
vt 0 0
vt 0 0
vt 0 0
vt 0 0
vt 0 0
vt 0 0
vt 0 0
vt 0 0
vt 0 0
vt 0 0
vt 0 0
vt 0 0
vt 0 0
vt 0 0
vt 0 0
vt 0 0
vt 0 0
vt 0 0
vt 0 0
vt 0 0
vt 0 0

usemtl Big_Curved_AxeMat
usemap Big_Curved_AxeMat
f 1/1/1 2/2/2 3/3/3
f 2/2/2 4/4/4 3/3/3
f 5/5/5 6/6/6 7/7/7
f 6/6/6 8/8/8 7/7/7
f 9/9/9 10/10/10 11/11/11
f 10/10/10 12/12/12 11/11/11
f 13/13/13 14/14/14 15/15/15
f 14/14/14 16/16/16 15/15/15
f 17/17/17 18/18/18 19/19/19
f 18/18/18 20/20/20 19/19/19
f 20/20/20 21/21/21 19/19/19
f 20/20/20 22/22/22 21/21/21
f 22/22/22 20/20/20 23/23/23
f 23/23/23 20/20/20 24/24/24
f 23/23/23 24/24/24 25/25/25
f 26/26/26 23/23/23 25/25/25
f 27/27/27 23/23/23 26/26/26
f 27/27/27 28/28/28 23/23/23
f 28/28/28 29/29/29 23/23/23
f 28/28/28 30/30/30 29/29/29
f 31/31/31 30/30/30 28/28/28
f 31/31/31 28/28/28 32/32/32
f 19/19/19 21/21/21 33/33/33
f 19/19/19 33/33/33 34/34/34
f 21/21/21 22/22/22 35/35/35
f 22/22/22 36/36/36 35/35/35
f 22/22/22 37/37/37 36/36/36
f 37/37/37 38/38/38 36/36/36
f 36/36/36 38/38/38 39/39/39
f 36/36/36 39/39/39 40/40/40
f 41/41/41 36/36/36 40/40/40
f 41/41/41 40/40/40 42/42/42
f 43/43/43 41/41/41 42/42/42
f 44/44/44 19/19/19 34/34/34
f 19/19/19 44/44/44 45/45/45
f 19/19/19 45/45/45 46/46/46
f 47/47/47 19/19/19 46/46/46
f 19/19/19 47/47/47 48/48/48
f 19/19/19 48/48/48 49/49/49
f 50/50/50 19/19/19 49/49/49
f 50/50/50 49/49/49 51/51/51
f 52/52/52 53/53/53 18/18/18
f 53/53/53 54/54/54 18/18/18
f 52/52/52 18/18/18 55/55/55
f 18/18/18 56/56/56 55/55/55
f 18/18/18 17/17/17 56/56/56
f 54/54/54 53/53/53 57/57/57
f 53/53/53 58/58/58 57/57/57
f 53/53/53 59/59/59 58/58/58
f 59/59/59 60/60/60 58/58/58
f 61/61/61 62/62/62 63/63/63
f 62/62/62 64/64/64 63/63/63
f 63/63/63 64/64/64 65/65/65
f 64/64/64 66/66/66 65/65/65
f 64/64/64 67/67/67 66/66/66
f 67/67/67 64/64/64 68/68/68
f 64/64/64 69/69/69 68/68/68
f 64/64/64 70/70/70 69/69/69
f 70/70/70 64/64/64 71/71/71
f 64/64/64 72/72/72 71/71/71
f 64/64/64 73/73/73 72/72/72
f 73/73/73 74/74/74 72/72/72
f 61/61/61 75/75/75 62/62/62
f 75/75/75 76/76/76 62/62/62
f 75/75/75 77/77/77 76/76/76
f 77/77/77 75/75/75 78/78/78
f 75/75/75 79/79/79 78/78/78
f 75/75/75 80/80/80 79/79/79
f 80/80/80 81/81/81 79/79/79
f 80/80/80 82/82/82 81/81/81
f 83/83/83 84/84/84 85/85/85
f 85/85/85 84/84/84 86/86/86
f 84/84/84 87/87/87 86/86/86
f 84/84/84 88/88/88 87/87/87
f 88/88/88 89/89/89 87/87/87
f 84/84/84 83/83/83 90/90/90
f 84/84/84 90/90/90 91/91/91
f 92/92/92 84/84/84 91/91/91
f 84/84/84 92/92/92 93/93/93
f 63/63/63 84/84/84 93/93/93
f 63/63/63 65/65/65 84/84/84
f 65/65/65 94/94/94 84/84/84
f 65/65/65 95/95/95 94/94/94
f 95/95/95 96/96/96 94/94/94
f 95/95/95 97/97/97 96/96/96
f 98/98/98 97/97/97 95/95/95
f 98/98/98 95/95/95 99/99/99
f 99/99/99 95/95/95 100/100/100
f 99/99/99 100/100/100 101/101/101
f 102/102/102 99/99/99 101/101/101
f 102/102/102 101/101/101 103/103/103
f 104/104/104 102/102/102 103/103/103
f 105/105/105 106/106/106 107/107/107
f 105/105/105 108/108/108 106/106/106
f 109/109/109 110/110/110 111/111/111
f 109/109/109 112/112/112 110/110/110
f 113/113/113 114/114/114 115/115/115
f 113/113/113 116/116/116 114/114/114
f 117/117/117 118/118/118 119/119/119
f 117/117/117 120/120/120 118/118/118
f 121/121/121 122/122/122 123/123/123
f 121/121/121 124/124/124 122/122/122
f 125/125/125 126/126/126 127/127/127
f 125/125/125 128/128/128 126/126/126
f 129/129/129 130/130/130 131/131/131
f 129/129/129 132/132/132 130/130/130
f 133/133/133 134/134/134 135/135/135
f 133/133/133 136/136/136 134/134/134
f 137/137/137 138/138/138 139/139/139
f 137/137/137 140/140/140 138/138/138
f 141/141/141 142/142/142 143/143/143
f 141/141/141 144/144/144 142/142/142
f 145/145/145 146/146/146 147/147/147
f 145/145/145 148/148/148 146/146/146
f 149/149/149 150/150/150 151/151/151
f 149/149/149 152/152/152 150/150/150
f 153/153/153 154/154/154 155/155/155
f 153/153/153 156/156/156 154/154/154
f 157/157/157 158/158/158 159/159/159
f 157/157/157 160/160/160 158/158/158
f 161/161/161 162/162/162 163/163/163
f 161/161/161 164/164/164 162/162/162
f 165/165/165 166/166/166 167/167/167
f 165/165/165 168/168/168 166/166/166
f 169/169/169 170/170/170 171/171/171
f 169/169/169 172/172/172 170/170/170
f 173/173/173 174/174/174 175/175/175
f 173/173/173 176/176/176 174/174/174
f 177/177/177 178/178/178 179/179/179
f 177/177/177 180/180/180 178/178/178
f 181/181/181 182/182/182 183/183/183
f 181/181/181 184/184/184 182/182/182
f 185/185/185 186/186/186 187/187/187
f 185/185/185 188/188/188 186/186/186
f 189/189/189 190/190/190 191/191/191
f 189/189/189 192/192/192 190/190/190
f 193/193/193 194/194/194 195/195/195
f 193/193/193 196/196/196 194/194/194
f 197/197/197 198/198/198 199/199/199
f 197/197/197 200/200/200 198/198/198
f 201/201/201 202/202/202 203/203/203
f 201/201/201 204/204/204 202/202/202
f 205/205/205 206/206/206 207/207/207
f 205/205/205 208/208/208 206/206/206
f 209/209/209 210/210/210 211/211/211
f 209/209/209 212/212/212 210/210/210
f 213/213/213 214/214/214 215/215/215
f 213/213/213 216/216/216 214/214/214
f 217/217/217 218/218/218 219/219/219
f 217/217/217 220/220/220 218/218/218
f 221/221/221 222/222/222 223/223/223
f 221/221/221 224/224/224 222/222/222
f 225/225/225 226/226/226 227/227/227
f 225/225/225 228/228/228 226/226/226
f 229/229/229 230/230/230 231/231/231
f 229/229/229 232/232/232 230/230/230
f 233/233/233 234/234/234 235/235/235
f 233/233/233 236/236/236 234/234/234
f 237/237/237 238/238/238 239/239/239
f 237/237/237 240/240/240 238/238/238
f 241/241/241 242/242/242 243/243/243
f 241/241/241 244/244/244 242/242/242
f 245/245/245 246/246/246 247/247/247
f 245/245/245 248/248/248 246/246/246
f 249/249/249 250/250/250 251/251/251
f 249/249/249 252/252/252 250/250/250
f 253/253/253 254/254/254 255/255/255
f 253/253/253 256/256/256 254/254/254
f 257/257/257 258/258/258 259/259/259
f 257/257/257 260/260/260 258/258/258
f 261/261/261 262/262/262 263/263/263
f 261/261/261 264/264/264 262/262/262
#Handle
#-------
v 0.5 -0.0125 -0.05
v 0.5 0.0125 -0.05
v -0.5 0.0125 -0.05
v -0.5 -0.0125 -0.05
v 0.5 0.0125 -0.05
v 0.5 0.0125 0.05
v -0.5 0.0125 0.05
v -0.5 0.0125 -0.05
v 0.5 0.0125 0.05
v 0.5 -0.0125 0.05
v -0.5 -0.0125 0.05
v -0.5 0.0125 0.05
v 0.5 -0.0125 0.05
v 0.5 -0.0125 -0.05
v -0.5 -0.0125 -0.05
v -0.5 -0.0125 0.05
v -0.5 -0.0125 -0.05
v -0.5 0.0125 -0.05
v -0.5 0.0125 0.05
v -0.5 -0.0125 0.05
v 0.5 -0.0125 0.05
v 0.5 0.0125 0.05
v 0.5 0.0125 -0.05
v 0.5 -0.0125 -0.05

vn 0 0 1
vn 0 0 1
vn 0 0 1
vn 0 0 1
vn 0 -1 0
vn 0 -1 0
vn 0 -1 0
vn 0 -1 0
vn 0 0 -1
vn 0 0 -1
vn 0 0 -1
vn 0 0 -1
vn 0 1 0
vn 0 1 0
vn 0 1 0
vn 0 1 0
vn 1 0 0
vn 1 0 0
vn 1 0 0
vn 1 0 0
vn -1 0 0
vn -1 0 0
vn -1 0 0
vn -1 0 0

vt 0 0
vt 0 0
vt 0 0
vt 0 0
vt 0 0
vt 0 0
vt 0 0
vt 0 0
vt 0 0
vt 0 0
vt 0 0
vt 0 0
vt 0 0
vt 0 0
vt 0 0
vt 0 0
vt 0 0
vt 0 0
vt 0 0
vt 0 0
vt 0 0
vt 0 0
vt 0 0
vt 0 0

usemtl CubeMat
usemap CubeMat
f 265/265/265 266/266/266 267/267/267
f 265/265/265 267/267/267 268/268/268
f 269/269/269 270/270/270 271/271/271
f 269/269/269 271/271/271 272/272/272
f 273/273/273 274/274/274 275/275/275
f 273/273/273 275/275/275 276/276/276
f 277/277/277 278/278/278 279/279/279
f 277/277/277 279/279/279 280/280/280
f 281/281/281 282/282/282 283/283/283
f 281/281/281 283/283/283 284/284/284
f 285/285/285 286/286/286 287/287/287
f 285/285/285 287/287/287 288/288/288
