<?xml version="1.0" encoding="UTF-8"?>
<COLLADA xmlns="http://www.collada.org/2005/11/COLLADASchema" version="1.4.1">
    <asset>
        <contributor>
            <author>VCGLab</author>
            <authoring_tool>VCGLib | MeshLab</authoring_tool>
        </contributor>
        <created>Wed Dec 13 18:56:12 2017 GMT</created>
        <modified>Wed Dec 13 18:56:12 2017 GMT</modified>
        <up_axis>Y_UP</up_axis>
    </asset>
    <library_geometries>
        <geometry id="shape0-lib" name="shape0">
            <mesh>
                <source id="shape0-lib-positions" name="position">
                    <float_array id="shape0-lib-positions-array" count="276">1.24424e-15 243.84 0 2.36406e-14 60.96 0 1.24424e-15 243.84 101.6 2.36406e-14 60.96 101.6 60.96 0 0 320.04 0 0 60.96 0 101.6 320.04 0 101.6 381 243.84 101.6 381 60.96 101.6 381 243.84 0 381 60.96 0 10.16 254 101.6 370.84 254 101.6 10.16 254 0 370.84 254 0 2.08167e-14 60.96 101.6 5.54746 252.893 101.6 4.1881 252.06 101.6 2.9758 251.024 101.6 1.94039 249.812 101.6 1.10737 248.453 101.6 329.576 0.750542 101.6 338.878 2.9836 101.6 347.715 6.64425 101.6 7.02039 253.503 101.6 355.871 11.6423 101.6 363.145 17.8548 101.6 369.358 25.1286 101.6 374.356 33.2848 101.6 378.016 42.1223 101.6 8.57063 253.875 101.6 0.497266 246.98 101.6 0.125086 245.429 101.6 380.249 51.4238 101.6 379.06 249.812 101.6 378.024 251.024 101.6 379.893 248.453 101.6 376.812 252.06 101.6 380.503 246.98 101.6 375.453 252.893 101.6 373.98 253.503 101.6 380.875 245.429 101.6 372.429 253.875 101.6 33.2847 6.64425 101.6 25.1286 11.6423 101.6 0.750519 51.4238 101.6 42.1223 2.9836 101.6 51.4238 0.750542 101.6 2.98359 42.1223 101.6 6.64424 33.2848 101.6 17.8548 17.8548 101.6 11.6423 25.1286 101.6 380.875 245.429 0 369.358 25.1286 0 363.145 17.8548 0 1.73472e-15 243.84 0 0.125086 245.429 0 0.497266 246.98 0 1.10737 248.453 0 1.94039 249.812 0 2.9758 251.024 0 4.1881 252.06 0 5.54746 252.893 0 8.57063 253.875 0 7.02039 253.503 0 380.249 51.4238 0 355.871 11.6423 0 347.715 6.64425 0 329.576 0.750542 0 338.878 2.9836 0 33.2847 6.64425 0 25.1286 11.6423 0 2.08167e-14 60.96 0 380.503 246.98 0 372.429 253.875 0 373.98 253.503 0 375.453 252.893 0 376.812 252.06 0 379.893 248.453 0 378.024 251.024 0 379.06 249.812 0 378.016 42.1223 0 374.356 33.2848 0 42.1223 2.9836 0 51.4238 0.750542 0 11.6423 25.1286 0 6.64424 33.2848 0 17.8548 17.8548 0 2.98359 42.1223 0 0.750519 51.4238 0 1.73472e-15 243.84 101.6</float_array>
                    <technique_common>
                        <accessor count="92" source="#shape0-lib-positions-array" stride="3">
                            <param name="X" type="float"/>
                            <param name="Y" type="float"/>
                            <param name="Z" type="float"/>
                        </accessor>
                    </technique_common>
                </source>
                <source id="shape0-lib-normals" name="normal">
                    <float_array id="shape0-lib-normals-array" count="516">-1 -1.22465e-16 0 -1 -1.22465e-16 0 0 -1 0 0 -1 0 1 0 0 1 0 0 0 1 0 0 1 0 0 0 1 0 0 1 0 0 1 0 0 1 0 0 1 0 0 1 0 0 1 0 0 1 0 0 1 0 0 1 0 0 1 0 0 1 0 0 1 0 0 1 0 0 1 0 0 1 0 0 1 0 0 1 0 0 1 0 0 1 0 0 1 0 0 1 0 0 1 0 0 1 0 0 1 0 0 1 0 0 1 0 0 1 0 0 1 0 0 1 0 0 1 0 0 1 0 0 1 0 0 1 0 0 1 0 0 1 0 0 1 0 0 1 0 0 1 0 0 1 0 0 1 0 0 1 0 0 -1 0 0 -1 0 0 -1 0 0 -1 0 0 -1 0 0 -1 0 0 -1 0 0 -1 0 0 -1 0 0 -1 0 0 -1 0 0 -1 0 0 -1 0 0 -1 0 0 -1 0 0 -1 0 0 -1 0 0 -1 0 0 -1 0 0 -1 0 0 -1 0 0 -1 0 0 -1 0 0 -1 0 0 -1 0 0 -1 0 0 -1 0 0 -1 0 0 -1 0 0 -1 0 0 -1 0 0 -1 0 0 -1 0 0 -1 0 0 -1 0 0 -1 0 0 -1 0 0 -1 0 0 -1 0 0 -1 0 0 -1 0 0 -1 -0.996917 -0.078459 0 -0.996917 -0.078459 0 -0.97237 -0.233445 0 -0.97237 -0.233445 0 -0.92388 -0.382684 0 -0.92388 -0.382684 0 -0.85264 -0.522498 0 -0.85264 -0.522498 0 -0.760406 -0.649448 0 -0.760406 -0.649448 0 -0.649448 -0.760406 0 -0.649448 -0.760406 0 -0.522499 -0.85264 0 -0.522499 -0.85264 0 -0.382684 -0.923879 0 -0.382684 -0.923879 0 -0.233444 -0.97237 0 -0.233444 -0.97237 0 -0.0784615 -0.996917 0 -0.0784615 -0.996917 0 0.0784611 -0.996917 0 0.0784611 -0.996917 0 0.233444 -0.97237 0 0.233444 -0.97237 0 0.382684 -0.92388 0 0.382684 -0.92388 0 0.522501 -0.852639 0 0.522501 -0.852639 0 0.649447 -0.760407 0 0.649447 -0.760407 0 0.760407 -0.649447 0 0.760407 -0.649447 0 0.852639 -0.5225 0 0.852639 -0.5225 0 0.92388 -0.382683 0 0.92388 -0.382683 0 0.97237 -0.233444 0 0.97237 -0.233444 0 0.996917 -0.078459 0 0.996917 -0.078459 0 -0.0784623 0.996917 0 -0.0784623 0.996917 0 -0.233435 0.972372 0 -0.233435 0.972372 0 -0.382691 0.923876 0 -0.382691 0.923876 0 -0.522503 0.852638 0 -0.522503 0.852638 0 -0.649445 0.760408 0 -0.649445 0.760408 0 -0.760407 0.649447 0 -0.760407 0.649447 0 -0.852641 0.522497 0 -0.852641 0.522497 0 -0.923878 0.382687 0 -0.923878 0.382687 0 -0.97237 0.233444 0 -0.97237 0.233444 0 -0.996917 0.0784593 0 -0.996917 0.0784593 0 0.996917 0.0784624 0 0.996917 0.0784624 0 0.972368 0.233452 0 0.972368 0.233452 0 0.923878 0.382687 0 0.923878 0.382687 0 0.852643 0.522495 0 0.852643 0.522495 0 0.760409 0.649444 0 0.760409 0.649444 0 0.649444 0.760409 0 0.649444 0.760409 0 0.522506 0.852636 0 0.522506 0.852636 0 0.382685 0.923879 0 0.382685 0.923879 0 0.23344 0.972371 0 0.23344 0.972371 0 0.0784632 0.996917 0 0.0784632 0.996917 0</float_array>
                    <technique_common>
                        <accessor count="172" source="#shape0-lib-normals-array" stride="3">
                            <param name="X" type="float"/>
                            <param name="Y" type="float"/>
                            <param name="Z" type="float"/>
                        </accessor>
                    </technique_common>
                </source>
                <vertices id="shape0-lib-vertices">
                    <input semantic="POSITION" source="#shape0-lib-positions"/>
                </vertices>
                <triangles count="172">
                    <input offset="0" semantic="VERTEX" source="#shape0-lib-vertices"/>
                    <input offset="1" semantic="NORMAL" source="#shape0-lib-normals"/>
                    <p>0 0 1 0 2 0 2 1 1 1 3 1 4 2 5 2 6 2 6 3 5 3 7 3 8 4 9 4 10 4 10 5 9 5 11 5 12 6 13 6 14 6 14 7 13 7 15 7 6 8 7 8 16 8 13 9 12 9 2 9 17 10 18 10 19 10 16 11 7 11 2 11 2 12 7 12 8 12 2 13 8 13 13 13 20 14 21 14 12 14 22 15 23 15 24 15 17 16 19 16 25 16 22 17 24 17 7 17 7 18 24 18 26 18 7 19 26 19 27 19 27 20 28 20 7 20 7 21 28 21 29 21 7 22 29 22 30 22 20 23 12 23 19 23 19 24 12 24 31 24 19 25 31 25 25 25 21 26 32 26 12 26 12 27 32 27 33 27 12 28 33 28 2 28 30 29 34 29 7 29 7 30 34 30 9 30 7 31 9 31 8 31 35 32 36 32 37 32 37 33 36 33 38 33 37 34 38 34 39 34 39 35 38 35 40 35 39 36 40 36 41 36 8 37 42 37 13 37 13 38 42 38 39 38 13 39 39 39 43 39 43 40 39 40 41 40 44 41 16 41 45 41 45 42 16 42 46 42 44 43 47 43 16 43 16 44 47 44 48 44 16 45 48 45 6 45 46 46 49 46 45 46 45 47 49 47 50 47 45 48 50 48 51 48 51 49 50 49 52 49 53 50 10 50 15 50 15 51 10 51 14 51 54 52 55 52 5 52 10 53 56 53 14 53 14 54 56 54 57 54 14 55 57 55 58 55 58 56 59 56 14 56 14 57 59 57 60 57 14 58 60 58 61 58 61 59 62 59 14 59 14 60 62 60 63 60 14 61 63 61 64 61 64 62 63 62 65 62 10 63 11 63 5 63 5 64 11 64 66 64 55 65 67 65 5 65 5 66 67 66 68 66 5 67 68 67 69 67 69 68 68 68 70 68 71 69 72 69 73 69 53 70 15 70 74 70 74 71 15 71 75 71 74 72 75 72 76 72 76 73 77 73 74 73 74 74 77 74 78 74 74 75 78 75 79 75 79 76 78 76 80 76 79 77 80 77 81 77 66 78 82 78 5 78 5 79 82 79 83 79 5 80 83 80 54 80 71 81 73 81 84 81 10 82 5 82 56 82 56 83 5 83 4 83 56 84 4 84 73 84 73 85 4 85 85 85 73 86 85 86 84 86 86 87 87 87 88 87 88 88 87 88 89 88 88 89 89 89 72 89 72 90 89 90 90 90 72 91 90 91 73 91 16 92 73 92 90 92 16 93 90 93 46 93 46 94 90 94 89 94 46 95 89 95 49 95 49 96 89 96 87 96 49 97 87 97 50 97 50 98 87 98 86 98 50 99 86 99 52 99 52 100 86 100 88 100 52 101 88 101 51 101 51 102 88 102 72 102 51 103 72 103 45 103 45 104 72 104 71 104 45 105 71 105 44 105 44 106 71 106 84 106 44 107 84 107 47 107 47 108 84 108 85 108 47 109 85 109 48 109 48 110 85 110 4 110 48 111 4 111 6 111 7 112 5 112 69 112 7 113 69 113 22 113 22 114 69 114 70 114 22 115 70 115 23 115 23 116 70 116 68 116 23 117 68 117 24 117 24 118 68 118 67 118 24 119 67 119 26 119 26 120 67 120 55 120 26 121 55 121 27 121 27 122 55 122 54 122 27 123 54 123 28 123 28 124 54 124 83 124 28 125 83 125 29 125 29 126 83 126 82 126 29 127 82 127 30 127 30 128 82 128 66 128 30 129 66 129 34 129 34 130 66 130 11 130 34 131 11 131 9 131 12 132 14 132 64 132 12 133 64 133 31 133 31 134 64 134 65 134 31 135 65 135 25 135 25 136 65 136 63 136 25 137 63 137 17 137 17 138 63 138 62 138 17 139 62 139 18 139 18 140 62 140 61 140 18 141 61 141 19 141 19 142 61 142 60 142 19 143 60 143 20 143 20 144 60 144 59 144 20 145 59 145 21 145 21 146 59 146 58 146 21 147 58 147 32 147 32 148 58 148 57 148 32 149 57 149 33 149 33 150 57 150 56 150 33 151 56 151 91 151 8 152 10 152 53 152 8 153 53 153 42 153 42 154 53 154 74 154 42 155 74 155 39 155 39 156 74 156 79 156 39 157 79 157 37 157 37 158 79 158 81 158 37 159 81 159 35 159 35 160 81 160 80 160 35 161 80 161 36 161 36 162 80 162 78 162 36 163 78 163 38 163 38 164 78 164 77 164 38 165 77 165 40 165 40 166 77 166 76 166 40 167 76 167 41 167 41 168 76 168 75 168 41 169 75 169 43 169 43 170 75 170 15 170 43 171 15 171 13 171</p>
                </triangles>
            </mesh>
        </geometry>
    </library_geometries>
    <library_visual_scenes>
        <visual_scene id="VisualSceneNode" name="VisualScene">
            <node id="node" name="node">
                <instance_geometry url="#shape0-lib"/>
            </node>
        </visual_scene>
    </library_visual_scenes>
    <scene>
        <instance_visual_scene url="#VisualSceneNode"/>
    </scene>
</COLLADA>
