<?xml version="1.0" encoding="UTF-8"?>
<COLLADA xmlns="http://www.collada.org/2005/11/COLLADASchema" version="1.4.1">
    <asset>
        <contributor>
            <author>VCGLab</author>
            <authoring_tool>VCGLib | MeshLab</authoring_tool>
        </contributor>
        <created>Tue Jan 9 14:09:43 2018 GMT</created>
        <modified>Tue Jan 9 14:09:43 2018 GMT</modified>
        <up_axis>Y_UP</up_axis>
    </asset>
    <library_geometries>
        <geometry id="shape0-lib" name="shape0">
            <mesh>
                <source id="shape0-lib-positions" name="position">
                    <float_array id="shape0-lib-positions-array" count="180">303.654 443.505 373.276 303.654 424.415 373.276 306.295 443.505 360.853 306.295 424.415 360.853 516.502 443.505 418.518 519.142 443.505 406.095 513.431 453.395 404.881 510.791 453.395 417.304 506.938 462.768 403.501 504.298 462.768 415.923 499.707 471.557 401.964 497.067 471.557 414.387 491.788 479.704 400.281 489.148 479.704 412.703 483.236 487.151 398.463 480.595 487.151 410.885 474.109 493.848 396.523 471.469 493.848 408.946 464.471 499.748 394.474 461.83 499.748 406.897 454.387 504.811 392.331 451.746 504.811 404.753 443.927 509.002 390.108 441.287 509.002 402.53 433.164 512.291 387.82 430.523 512.291 400.242 422.171 514.658 385.483 419.53 514.658 397.906 411.024 516.084 383.114 408.383 516.084 395.536 399.799 516.56 380.728 397.159 516.56 393.15 388.575 516.084 378.342 385.934 516.084 390.765 377.428 514.658 375.973 374.787 514.658 388.395 366.434 512.291 373.636 363.794 512.291 386.059 355.671 509.002 371.348 353.03 509.002 383.771 345.211 504.811 369.125 342.571 504.811 381.547 335.128 499.748 366.982 332.487 499.748 379.404 325.489 493.848 364.933 322.849 493.848 377.355 316.362 487.151 362.993 313.722 487.151 375.415 307.81 479.704 361.175 305.17 479.704 373.598 299.891 471.557 359.492 297.251 471.557 371.914 292.66 462.768 357.955 290.02 462.768 370.377 286.167 453.395 356.575 283.527 453.395 368.997 280.456 443.505 355.361 277.816 443.505 367.783 277.816 424.415 367.783 280.456 424.415 355.361</float_array>
                    <technique_common>
                        <accessor count="60" source="#shape0-lib-positions-array" stride="3">
                            <param name="X" type="float"/>
                            <param name="Y" type="float"/>
                            <param name="Z" type="float"/>
                        </accessor>
                    </technique_common>
                </source>
                <source id="shape0-lib-normals" name="normal">
                    <float_array id="shape0-lib-normals-array" count="348">0.978147 0 0.207914 0.978147 0 0.207914 0 -1 0 0 -1 0 0.842334 0.508348 0.179041 0.842331 0.508351 0.179045 0.798208 0.577994 0.169666 0.798208 0.577995 0.169666 0.748585 0.643663 0.159118 0.748586 0.643662 0.159117 0.693812 0.704894 0.147474 0.693813 0.704894 0.147474 0.63426 0.761275 0.134816 0.634259 0.761276 0.134817 0.570339 0.812414 0.12123 0.57034 0.812413 0.121229 0.502494 0.857958 0.106808 0.502494 0.857958 0.106808 0.431187 0.897596 0.0916515 0.431187 0.897596 0.0916514 0.35691 0.931053 0.0758633 0.356911 0.931053 0.0758628 0.280183 0.958097 0.0595541 0.280183 0.958098 0.0595544 0.201517 0.978548 0.0428335 0.201517 0.978548 0.0428333 0.121471 0.992259 0.0258191 0.12147 0.992259 0.0258194 0.0405767 0.999139 0.0086249 0.0405768 0.999139 0.00862484 -0.0405767 0.999139 -0.00862483 -0.0405768 0.999139 -0.00862477 -0.121471 0.992259 -0.0258191 -0.12147 0.992259 -0.0258195 -0.201516 0.978548 -0.042834 -0.201517 0.978548 -0.0428337 -0.280183 0.958097 -0.0595547 -0.280183 0.958097 -0.0595547 -0.356911 0.931053 -0.0758637 -0.35691 0.931053 -0.0758642 -0.431187 0.897596 -0.0916524 -0.431187 0.897596 -0.0916526 -0.502494 0.857958 -0.10681 -0.502495 0.857957 -0.106809 -0.570338 0.812415 -0.12123 -0.570339 0.812414 -0.121229 -0.63426 0.761275 -0.134816 -0.634261 0.761274 -0.134814 -0.693814 0.704893 -0.147473 -0.693811 0.704895 -0.147475 -0.748586 0.643662 -0.159118 -0.748586 0.643662 -0.159118 -0.798208 0.577995 -0.169666 -0.79821 0.577993 -0.169664 -0.842332 0.508351 -0.179043 -0.842331 0.508352 -0.179043 -0.978148 0 -0.207912 -0.978148 0 -0.207912 0 -1 0 0 -1 0 -0.207913 0 0.978147 -0.207913 0 0.978147 -0.207913 -6.78943e-7 0.978147 -0.207912 1.03293e-7 0.978147 -0.207911 2.30939e-6 0.978148 -0.207912 -1.59333e-6 0.978148 -0.20791 3.8143e-6 0.978148 -0.207908 9.87824e-6 0.978148 -0.207912 -2.14447e-6 0.978147 -0.207914 -5.12867e-6 0.978147 -0.207912 -1.53726e-6 0.978147 -0.207912 -2.02255e-6 0.978148 -0.207912 -5.07171e-7 0.978148 -0.207912 2.47954e-7 0.978148 -0.207909 1.35175e-7 0.978148 -0.207914 -8.9996e-7 0.978147 -0.207909 7.51281e-6 0.978148 -0.20791 4.42545e-6 0.978148 -0.207912 -6.25851e-7 0.978148 -0.20791 4.55839e-6 0.978148 -0.207912 -7.02071e-7 0.978148 -0.207915 -7.3724e-6 0.978147 -0.207912 -1.93698e-6 0.978148 -0.207915 -9.45865e-6 0.978147 -0.207897 4.18605e-5 0.978151 -0.207913 -2.81955e-6 0.978147 -0.207905 1.63719e-5 0.978149 -0.207914 -8.85711e-6 0.978147 0.207911 -2.17552e-6 -0.978148 0.207913 -2.19014e-6 -0.978147 0.207913 0 -0.978147 0.207913 0 -0.978147 0.207912 -6.23491e-7 -0.978148 0.207911 -2.23067e-6 -0.978148 0.207913 2.09153e-6 -0.978147 0.207914 1.16574e-6 -0.978147 0.207912 -6.6957e-7 -0.978148 0.207912 -6.69917e-7 -0.978148 0.207912 -9.51284e-7 -0.978148 0.207912 3.04302e-6 -0.978148 0.207912 1.32108e-6 -0.978148 0.207912 0 -0.978148 0.207913 1.91952e-6 -0.978147 0.207913 2.70762e-6 -0.978147 0.207917 1.00078e-5 -0.978147 0.207908 -6.99113e-6 -0.978148 0.207909 -4.97019e-6 -0.978148 0.207911 -9.38763e-7 -0.978148 0.207909 -4.0342e-6 -0.978148 0.207912 4.59038e-7 -0.978148 0.207921 2.96516e-5 -0.978146 0.207908 -1.07218e-5 -0.978149 0.207907 -1.16942e-5 -0.978149 0.207916 7.61289e-6 -0.978147 0.207917 1.09652e-5 -0.978146 0.207909 -4.89519e-6 -0.978148</float_array>
                    <technique_common>
                        <accessor count="116" source="#shape0-lib-normals-array" stride="3">
                            <param name="X" type="float"/>
                            <param name="Y" type="float"/>
                            <param name="Z" type="float"/>
                        </accessor>
                    </technique_common>
                </source>
                <vertices id="shape0-lib-vertices">
                    <input semantic="POSITION" source="#shape0-lib-positions"/>
                </vertices>
                <triangles count="116">
                    <input offset="0" semantic="VERTEX" source="#shape0-lib-vertices"/>
                    <input offset="1" semantic="NORMAL" source="#shape0-lib-normals"/>
                    <p>0 0 1 0 2 0 2 1 1 1 3 1 4 2 0 2 5 2 5 3 0 3 2 3 4 4 5 4 6 4 4 5 6 5 7 5 7 6 6 6 8 6 7 7 8 7 9 7 9 8 8 8 10 8 9 9 10 9 11 9 11 10 10 10 12 10 11 11 12 11 13 11 13 12 12 12 14 12 13 13 14 13 15 13 15 14 14 14 16 14 15 15 16 15 17 15 17 16 16 16 18 16 17 17 18 17 19 17 19 18 18 18 20 18 19 19 20 19 21 19 21 20 20 20 22 20 21 21 22 21 23 21 23 22 22 22 24 22 23 23 24 23 25 23 25 24 24 24 26 24 25 25 26 25 27 25 27 26 26 26 28 26 27 27 28 27 29 27 29 28 28 28 30 28 29 29 30 29 31 29 31 30 30 30 32 30 31 31 32 31 33 31 33 32 32 32 34 32 33 33 34 33 35 33 35 34 34 34 36 34 35 35 36 35 37 35 37 36 36 36 38 36 37 37 38 37 39 37 39 38 38 38 40 38 39 39 40 39 41 39 41 40 40 40 42 40 41 41 42 41 43 41 43 42 42 42 44 42 43 43 44 43 45 43 45 44 44 44 46 44 45 45 46 45 47 45 47 46 46 46 48 46 47 47 48 47 49 47 49 48 48 48 50 48 49 49 50 49 51 49 51 50 50 50 52 50 51 51 52 51 53 51 53 52 52 52 54 52 53 53 54 53 55 53 55 54 54 54 56 54 55 55 56 55 57 55 58 56 57 56 59 56 59 57 57 57 56 57 1 58 58 58 3 58 3 59 58 59 59 59 58 60 1 60 57 60 57 61 1 61 0 61 57 62 0 62 55 62 55 63 0 63 53 63 39 64 41 64 4 64 4 65 41 65 43 65 4 66 43 66 45 66 27 67 29 67 17 67 7 68 35 68 4 68 4 69 35 69 37 69 4 70 37 70 39 70 45 71 47 71 4 71 4 72 47 72 49 72 4 73 49 73 0 73 0 74 49 74 51 74 0 75 51 75 53 75 17 76 29 76 15 76 7 77 9 77 35 77 35 78 9 78 11 78 35 79 11 79 33 79 33 80 11 80 31 80 31 81 11 81 29 81 29 82 11 82 13 82 29 83 13 83 15 83 21 84 23 84 25 84 27 85 17 85 25 85 25 86 17 86 19 86 25 87 19 87 21 87 46 88 44 88 5 88 54 89 2 89 56 89 56 90 2 90 3 90 56 91 3 91 59 91 44 92 42 92 5 92 5 93 42 93 40 93 5 94 40 94 38 94 54 95 52 95 2 95 2 96 52 96 50 96 2 97 50 97 5 97 5 98 50 98 48 98 5 99 48 99 46 99 38 100 36 100 5 100 5 101 36 101 34 101 5 102 34 102 32 102 8 103 28 103 10 103 10 104 28 104 26 104 10 105 26 105 24 105 32 106 30 106 5 106 5 107 30 107 28 107 5 108 28 108 6 108 6 109 28 109 8 109 22 110 20 110 24 110 24 111 20 111 18 111 24 112 18 112 16 112 16 113 14 113 24 113 24 114 14 114 12 114 24 115 12 115 10 115</p>
                </triangles>
            </mesh>
        </geometry>
    </library_geometries>
    <library_visual_scenes>
        <visual_scene id="VisualSceneNode" name="VisualScene">
            <node id="node" name="node">
                <instance_geometry url="#shape0-lib"/>
            </node>
        </visual_scene>
    </library_visual_scenes>
    <scene>
        <instance_visual_scene url="#VisualSceneNode"/>
    </scene>
</COLLADA>
